date,tests,positive
2020-03-16T00:00:00.000Z,1345,73
2020-03-17T00:00:00.000Z,1647,94
2020-03-18T00:00:00.000Z,2108,118
2020-03-19T00:00:00.000Z,2074,135
2020-03-20T00:00:00.000Z,2321,168
2020-03-21T00:00:00.000Z,2108,210
2020-03-22T00:00:00.000Z,3350,254
2020-03-23T00:00:00.000Z,3624,351
2020-03-24T00:00:00.000Z,4789,423
2020-03-25T00:00:00.000Z,5935,425
2020-03-26T00:00:00.000Z,6504,520
2020-03-27T00:00:00.000Z,5752,434
2020-03-28T00:00:00.000Z,5739,480
2020-03-29T00:00:00.000Z,7575,532
2020-03-30T00:00:00.000Z,7100,546
2020-03-31T00:00:00.000Z,7989,738
2020-04-01T00:00:00.000Z,9010,697
2020-04-02T00:00:00.000Z,10224,719
2020-04-03T00:00:00.000Z,10329,598
2020-04-04T00:00:00.000Z,6351,427
2020-04-05T00:00:00.000Z,9395,582
2020-04-06T00:00:00.000Z,7494,451
2020-04-07T00:00:00.000Z,6968,377
2020-04-08T00:00:00.000Z,5878,338
2020-04-09T00:00:00.000Z,5743,343
2020-04-10T00:00:00.000Z,7346,359
2020-04-11T00:00:00.000Z,6702,344
2020-04-12T00:00:00.000Z,10601,553
2020-04-13T00:00:00.000Z,10949,438
2020-04-14T00:00:00.000Z,12678,399
2020-04-15T00:00:00.000Z,9449,311
2020-04-16T00:00:00.000Z,12789,296
2020-04-17T00:00:00.000Z,11596,298
2020-04-18T00:00:00.000Z,10606,291
2020-04-19T00:00:00.000Z,11479,277
2020-04-20T00:00:00.000Z,15366,299
2020-04-21T00:00:00.000Z,13612,283
2020-04-22T00:00:00.000Z,13292,225
2020-04-23T00:00:00.000Z,14183,276
2020-04-24T00:00:00.000Z,12625,248
2020-04-25T00:00:00.000Z,9078,159
2020-04-26T00:00:00.000Z,8462,83
2020-04-27T00:00:00.000Z,11367,127
2020-04-28T00:00:00.000Z,10640,160
2020-04-29T00:00:00.000Z,8996,82
2020-04-30T00:00:00.000Z,9929,142
2020-05-01T00:00:00.000Z,11050,117
2020-05-02T00:00:00.000Z,5568,57
2020-05-03T00:00:00.000Z,8028,27
2020-05-04T00:00:00.000Z,9257,53
2020-05-05T00:00:00.000Z,8956,32
2020-05-06T00:00:00.000Z,9465,65
2020-05-07T00:00:00.000Z,10118,61
2020-05-08T00:00:00.000Z,8157,33
2020-05-09T00:00:00.000Z,3868,19
2020-05-10T00:00:00.000Z,4944,29
2020-05-11T00:00:00.000Z,9217,39
2020-05-12T00:00:00.000Z,7536,23
2020-05-13T00:00:00.000Z,8270,37
2020-05-14T00:00:00.000Z,8415,22
2020-05-15T00:00:00.000Z,5694,12
2020-05-16T00:00:00.000Z,1502,5
2020-05-17T00:00:00.000Z,4633,15
2020-05-18T00:00:00.000Z,7692,27
2020-05-19T00:00:00.000Z,7141,22
2020-05-20T00:00:00.000Z,5968,15
2020-05-21T00:00:00.000Z,6167,17
2020-05-22T00:00:00.000Z,4996,20
2020-05-23T00:00:00.000Z,717,5
2020-05-24T00:00:00.000Z,3809,13
2020-05-25T00:00:00.000Z,5331,22
2020-05-26T00:00:00.000Z,6818,50
2020-05-27T00:00:00.000Z,6728,40
2020-05-28T00:00:00.000Z,5354,77
2020-05-29T00:00:00.000Z,1863,113
2020-05-30T00:00:00.000Z,1058,28
2020-05-31T00:00:00.000Z,5641,88
2020-06-01T00:00:00.000Z,8157,100
2020-06-02T00:00:00.000Z,11757,121
2020-06-03T00:00:00.000Z,13209,96
2020-06-04T00:00:00.000Z,14898,141
2020-06-05T00:00:00.000Z,16473,124
2020-06-06T00:00:00.000Z,11537,78
2020-06-07T00:00:00.000Z,15097,140
2020-06-08T00:00:00.000Z,14644,179
2020-06-09T00:00:00.000Z,15057,172
2020-06-10T00:00:00.000Z,18481,238
2020-06-11T00:00:00.000Z,15810,191
2020-06-12T00:00:00.000Z,13131,183
2020-06-13T00:00:00.000Z,6979,149
2020-06-14T00:00:00.000Z,8837,136
2020-06-15T00:00:00.000Z,14433,199
2020-06-16T00:00:00.000Z,16233,296
2020-06-17T00:00:00.000Z,16019,269
2020-06-18T00:00:00.000Z,17367,304
2020-06-19T00:00:00.000Z,12752,306
2020-06-20T00:00:00.000Z,6009,157
2020-06-21T00:00:00.000Z,9073,171
2020-06-22T00:00:00.000Z,14006,342
2020-06-23T00:00:00.000Z,19832,447
2020-06-24T00:00:00.000Z,17696,466
2020-06-25T00:00:00.000Z,18457,504
2020-06-26T00:00:00.000Z,16547,464
2020-06-27T00:00:00.000Z,10488,398
2020-06-28T00:00:00.000Z,8572,299
